MultiLR: Predictive models – STA 210 - Spring 2022
…
World map data

world <- map_data("world")

world %>% as_tibble()

# A tibble: 99,338 × 6
    long   lat group order region subregion
   <dbl> <dbl> <dbl> <int> <chr>  <chr>    
 1 -69.9  12.5     1     1 Aruba  <NA>     
 2 -69.9  12.4     1     2 Aruba  <NA>     
 3 -69.9  12.4     1     3 Aruba  <NA>     
 4 -70.0  12.5     1     4 Aruba  <NA>     
 5 -70.1  12.5     1     5 Aruba  <NA>     
 6 -70.1  12.6     1     6 Aruba  <NA>     
 7 -70.0  12.6     1     7 Aruba  <NA>     
 8 -70.0  12.6     1     8 Aruba  <NA>     
 9 -69.9  12.5     1     9 Aruba  <NA>     
10 -69.9  12.5     1    10 Aruba  <NA>     
# … with 99,328 more rows
…
ROC curve - under the hood

An additional column, .level, identifies the “one” column in the one-vs-all calculation:

volcano_fit_rs1 %>%
  collect_predictions() %>%
  group_by(id) %>%
  roc_curve(
    truth = volcano_type,
    .pred_Stratovolcano:.pred_Other
  )

# A tibble: 2,175 × 5
# Groups:   id [5]
   id    .level        .threshold specificity sensitivity
   <chr> <chr>              <dbl>       <dbl>       <dbl>
 1 Fold1 Stratovolcano  -Inf           0                1
 2 Fold1 Stratovolcano     0.0621      0                1
 3 Fold1 Stratovolcano     0.0786      0.0123           1
 4 Fold1 Stratovolcano     0.0869      0.0247           1
 5 Fold1 Stratovolcano     0.0957      0.0370           1
 6 Fold1 Stratovolcano     0.104       0.0494           1
 7 Fold1 Stratovolcano     0.104       0.0617           1
 8 Fold1 Stratovolcano     0.105       0.0741           1
 9 Fold1 Stratovolcano     0.105       0.0864           1
10 Fold1 Stratovolcano     0.107       0.0988           1
# … with 2,165 more rows
…
